Chapter 14 Case study: Comparing different estimators | Designing Monte Carlo Simulations in R
…
Chapter 14 Case study: Comparing different estimators

In a previous exercise (See Exercise 10.6.3), you wrote a simulation to compare the mean, median, and trimmed mean for estimating the same thing.
This exercise is analogous to what we often are doing in a paper: pretend we have “invented” the trimmed mean and want to demonstrate its utility.

In this chapter, we walk through a deeper analysis of the results from such a simulation.
In this simulation we have three factors: sample size, a degrees of freedom to control the thickness of the tails (thicker tails means higher chance of outliers), and a degree of skew (how much the tails tend to the right vs. the left).
For our data-generation function we use a scaled skew \(t\)-distribution parameterized so the standard deviation will always be 1 and the mean will always be 0, with parameters to control the skew and tail thickness.
See the attached code file for the simulation.
Our final multi-factor simulation results look like this (we ran 1000 trials per scenario):

results <- read_rds( here::here( "results/skewed_t_simulation.rds" ) )
results

## # A tibble: 144 × 8
##        n   df0  skew     seed estimator  RMSE
##    <dbl> <dbl> <dbl>    <dbl> <chr>     <dbl>
##  1    10     3     0 42242459 mean      0.323
##  2    10     3     0 42242459 median    0.246
##  3    10     3     0 42242459 trim.mean 0.246
##  4    10     3    10 42242476 mean      0.333
##  5    10     3    10 42242476 median    0.303
##  6    10     3    10 42242476 trim.mean 0.246
##  7    10     5     0 42242493 mean      0.320
##  8    10     5     0 42242493 median    0.304
##  9    10     5     0 42242493 trim.mean 0.290
## 10    10     5    10 42242510 mean      0.327
## # ℹ 134 more rows
## # ℹ 2 more variables: bias <dbl>, SE <dbl>
…
