Designing Monte Carlo Simulations in R
…
9.7.2 Calculating MCSEs With the simhelpers Package

The simhelper package is designed to calculate MCSEs (and the performance metrics themselves) for you.
It is easy to use: take this set of simulation runs on the Welch dataset:

library( simhelpers )
data( welch_res )
welch <- welch_res %>%
  filter( method == "t-test" ) %>%
  dplyr::select( -method, -seed, -iterations )

welch

## # A tibble: 8,000 × 8
##       n1    n2 mean_diff      est    var p_val
##    <dbl> <dbl>     <dbl>    <dbl>  <dbl> <dbl>
##  1    50    50         0  0.0258  0.0954 0.934
##  2    50    50         0  0.00516 0.0848 0.986
##  3    50    50         0 -0.0798  0.0818 0.781
##  4    50    50         0 -0.0589  0.102  0.854
##  5    50    50         0  0.0251  0.118  0.942
##  6    50    50         0 -0.115   0.106  0.725
##  7    50    50         0  0.157   0.115  0.645
##  8    50    50         0 -0.213   0.121  0.543
##  9    50    50         0  0.509   0.117  0.139
## 10    50    50         0 -0.354   0.0774 0.206
## # ℹ 7,990 more rows
## # ℹ 2 more variables: lower_bound <dbl>,
## #   upper_bound <dbl>
…
design_factors <- list(
  n = c(50, 100),
  p = c(4, 8),
  alpha = seq(0.1, 0.9, 0.1),
  df = c(5, 10, 20, 100)
)

params <- cross_df(design_factors)
params

## # A tibble: 144 × 4
##        n     p alpha    df
##    <dbl> <dbl> <dbl> <dbl>
##  1    50     4   0.1     5
##  2   100     4   0.1     5
##  3    50     8   0.1     5
##  4   100     8   0.1     5
##  5    50     4   0.2     5
##  6   100     4   0.2     5
##  7    50     8   0.2     5
##  8   100     8   0.2     5
##  9    50     4   0.3     5
## 10   100     4   0.3     5
## # ℹ 134 more rows
…
All of this means pmap() can run a specified function on each row of a dataset.
Continuing the Cronbach Alpha simulation from above, we would have the following:

params$iterations <- 500
sim_results <-  params %>%
  mutate(res = pmap(., run_alpha_sim ) )

We add a column to params to record the desired 500 replications per condition.
The above code calls our run_alpha_sim() method for each row of our list of scenarios we want to explore.
Even better, we are storing the results as a new variable in the same dataset.

sim_results

## # A tibble: 144 × 6
##        n     p alpha    df iterations res  
##    <dbl> <dbl> <dbl> <dbl>      <dbl> <lgl>
##  1    50     4   0.1     5        500 NA   
##  2   100     4   0.1     5        500 NA   
##  3    50     8   0.1     5        500 NA   
##  4   100     8   0.1     5        500 NA   
##  5    50     4   0.2     5        500 NA   
##  6   100     4   0.2     5        500 NA   
##  7    50     8   0.2     5        500 NA   
##  8   100     8   0.2     5        500 NA   
##  9    50     4   0.3     5        500 NA   
## 10   100     4   0.3     5        500 NA   
## # ℹ 134 more rows
We are creating a list-column, where each element in our list column is the little summary of our simulation results for that scenario.
Here is the third scenario, for example:

sim_results$res[[3]]

## [1] NA

We finally use unnest() to expand the res variable, replicating the values of the main variables once for each row in the nested dataset:

library(tidyr)
sim_results <- unnest(sim_results, cols = res) %>%
  dplyr::select( -iterations )
sim_results

## # A tibble: 144 × 5
##        n     p alpha    df res  
##    <dbl> <dbl> <dbl> <dbl> <lgl>
##  1    50     4   0.1     5 NA   
##  2   100     4   0.1     5 NA   
##  3    50     8   0.1     5 NA   
##  4   100     8   0.1     5 NA   
##  5    50     4   0.2     5 NA   
##  6   100     4   0.2     5 NA   
##  7    50     8   0.2     5 NA   
##  8   100     8   0.2     5 NA   
##  9    50     4   0.3     5 NA   
## 10   100     4   0.3     5 NA   
## # ℹ 134 more rows
…
If we generated raw results then we need to collapse them by experimental run
before calculating performance measures so we can explore the trends across the
experiments.

One way to do this is to use group_by() and summarize() to collapse the raw results.

sim_results_full %>%
    group_by( n, p, alpha, df ) %>%
  summarise( 
    bias = mean(A - alpha),
    RMSE = sqrt(mean((A - alpha)^2))
  )

## # A tibble: 144 × 6
## # Groups:   n, p, alpha [36]
##        n     p alpha    df    bias  RMSE
##    <dbl> <dbl> <dbl> <dbl>   <dbl> <dbl>
##  1    50     4   0.1     5 -0.103  0.388
##  2    50     4   0.1    10 -0.0527 0.263
##  3    50     4   0.1    20 -0.0190 0.221
##  4    50     4   0.1   100 -0.0313 0.219
##  5    50     4   0.2     5 -0.0966 0.399
##  6    50     4   0.2    10 -0.0406 0.225
##  7    50     4   0.2    20 -0.0301 0.223
##  8    50     4   0.2   100 -0.0348 0.206
##  9    50     4   0.3     5 -0.0683 0.281
## 10    50     4   0.3    10 -0.0331 0.199
## # ℹ 134 more rows

If we want to use our full performance measure function alpha_performance() so we get additional metrics such as MCSEs, we would nest our data into a series of mini-datasets (one for each simulation), and then process each element.
As we saw above, nesting collapses a larger dataframe into a dataframe of dataframes:

results <- sim_results_full |>
  dplyr::select( -iterations, -seed ) |>
  group_by( n, p, alpha, df ) |>
  nest( .key = "alpha_sims" )
results

## # A tibble: 144 × 5
## # Groups:   n, p, alpha, df [144]
##        n     p alpha    df alpha_sims        
##    <dbl> <dbl> <dbl> <dbl> <list>            
##  1    50     4   0.1     5 <tibble [500 × 4]>
##  2   100     4   0.1     5 <tibble [500 × 4]>
##  3    50     8   0.1     5 <tibble [500 × 4]>
##  4   100     8   0.1     5 <tibble [500 × 4]>
##  5    50     4   0.2     5 <tibble [500 × 4]>
##  6   100     4   0.2     5 <tibble [500 × 4]>
##  7    50     8   0.2     5 <tibble [500 × 4]>
##  8   100     8   0.2     5 <tibble [500 × 4]>
##  9    50     4   0.3     5 <tibble [500 × 4]>
## 10   100     4   0.3     5 <tibble [500 × 4]>
## # ℹ 134 more rows

Note how each row has a little dataframe of the individual simulation results, with 500 rows each.
Once nested, we can then use map() to apply a function to each element of the nested dataframe.

results <- results %>%
  mutate( performance = map2( alpha_sims, alpha, 
                              alpha_performance ) )
results <- results %>%
  dplyr::select( -alpha_sims ) %>%
  unnest( cols="performance" ) 
results

## # A tibble: 576 × 7
## # Groups:   n, p, alpha, df [144]
##        n     p alpha    df criterion           est
##    <dbl> <dbl> <dbl> <dbl> <chr>             <dbl>
##  1    50     4   0.1     5 alpha bias      -0.103 
##  2    50     4   0.1     5 alpha RMSE       0.388 
##  3    50     4   0.1     5 V relative bias  0.436 
##  4    50     4   0.1     5 coverage         0.826 
##  5   100     4   0.1     5 alpha bias      -0.0347
##  6   100     4   0.1     5 alpha RMSE       0.224 
##  7   100     4   0.1     5 V relative bias  0.500 
##  8   100     4   0.1     5 coverage         0.85  
##  9    50     8   0.1     5 alpha bias      -0.0728
## 10    50     8   0.1     5 alpha RMSE       0.333 
## # ℹ 566 more rows
## # ℹ 1 more variable: MCSE <dbl>
…
  res %>% 
  group_by( n_bar, J, ATE, size_coef, ICC, alpha, method ) %>%
  summarise( 
    bias = mean(ATE_hat - ATE),
    SE = sd( ATE_hat ),
    RMSE = sqrt( mean( (ATE_hat - ATE )^2 ) ),
    ESE_hat = sqrt( mean( SE_hat^2 ) ),
    SD_SE_hat = sqrt( sd( SE_hat^2 ) ),
    power = mean( p_value <= 0.05 ),
    R = n(),
    .groups = "drop"
  )
sres

## # A tibble: 810 × 14
##    n_bar     J   ATE size_coef   ICC alpha method
##    <dbl> <dbl> <dbl>     <dbl> <dbl> <dbl> <chr> 
##  1    20     5   0.2         0   0     0   Agg   
##  2    20     5   0.2         0   0     0   LR    
##  3    20     5   0.2         0   0     0   MLM   
##  4    20     5   0.2         0   0     0.5 Agg   
##  5    20     5   0.2         0   0     0.5 LR    
##  6    20     5   0.2         0   0     0.5 MLM   
##  7    20     5   0.2         0   0     0.8 Agg   
##  8    20     5   0.2         0   0     0.8 LR    
##  9    20     5   0.2         0   0     0.8 MLM   
## 10    20     5   0.2         0   0.2   0   Agg   
## # ℹ 800 more rows
## # ℹ 7 more variables: bias <dbl>, SE <dbl>,
## #   RMSE <dbl>, ESE_hat <dbl>, SD_SE_hat <dbl>,
## #   power <dbl>, R <int>
…
We next use the above to run our multi-factor simulation experiment.
We are going to vary four factors: control group size, treatment group size,
standard deviation of the units, and the treatment effect.

nC = c( 2, 4, 7, 10, 50, 500 )
nT = c( 2, 4, 7, 10, 50, 500 )
sdC = c( 1 )
tau = c( 0, 0.5, 1 )
sdTau = c( 0, 0.5 )

experiments = expand_grid( nC=nC, nT=nT, sdC=sdC, tau=tau, sdTau = sdTau )
experiments

## # A tibble: 216 × 5
##       nC    nT   sdC   tau sdTau
##    <dbl> <dbl> <dbl> <dbl> <dbl>
##  1     2     2     1   0     0  
##  2     2     2     1   0     0.5
##  3     2     2     1   0.5   0  
##  4     2     2     1   0.5   0.5
##  5     2     2     1   1     0  
##  6     2     2     1   1     0.5
##  7     2     4     1   0     0  
##  8     2     4     1   0     0.5
##  9     2     4     1   0.5   0  
## 10     2     4     1   0.5   0.5
## # ℹ 206 more rows
…
ns = c( 10, 50, 250, 1250 )
dfs = c( 3, 5, 15, 30 )
lvls = expand_grid( n=ns, df=dfs )

# So it stores our dataframe results in our lvls data properly.
lvls = as_tibble(lvls)

results <- lvls %>% mutate( results = pmap( lvls, run.simulation ) )

We have stored our results (a bunch of dataframes) in our main matrix of
simulation runs.

print( results, n=4 )

## # A tibble: 16 × 3
##       n    df results         
##   <dbl> <dbl> <list>          
## 1    10     3 <tibble [3 × 4]>
## 2    10     5 <tibble [3 × 4]>
## 3    10    15 <tibble [3 × 4]>
## 4    10    30 <tibble [3 × 4]>
## # ℹ 12 more rows

The unnest() function will stack up our dataframes, replicating the other columns in the main dataframe so it makes a nice rectangular dataset, all nice like. See (hard to read) R for DS Chapter 25.4.

results <- unnest( results, cols="results" )
results

## # A tibble: 48 × 6
##        n    df estimator  RMSE      bias    SE
##    <dbl> <dbl> <chr>     <dbl>     <dbl> <dbl>
##  1    10     3 mean      0.308 -0.00795  0.308
##  2    10     3 median    0.244 -0.00403  0.244
##  3    10     3 trim.mean 0.250 -0.00347  0.250
##  4    10     5 mean      0.321 -0.00142  0.322
##  5    10     5 median    0.315 -0.00763  0.315
##  6    10     5 trim.mean 0.294 -0.000161 0.294
##  7    10    15 mean      0.316 -0.00903  0.316
##  8    10    15 median    0.357  0.00890  0.357
##  9    10    15 trim.mean 0.316 -0.00138  0.316
## 10    10    30 mean      0.315 -0.00450  0.315
## # ℹ 38 more rows
…
datW = read_csv( "data/discipline_data.csv" )

## Rows: 27 Columns: 6
## ── Column specification ──────────────────────────
## Delimiter: ","
## chr (1): Code
## dbl (5): 2015, 2016, 2017, 2018, 2019
## 
## ℹ Use `spec()` to retrieve the full column specification for this data.
## ℹ Specify the column types or set `show_col_types = FALSE` to quiet this message.

datW

## # A tibble: 27 × 6
##    Code  `2015` `2016` `2017` `2018` `2019`
##    <chr>  <dbl>  <dbl>  <dbl>  <dbl>  <dbl>
##  1 S1     -2.87  -2.81  -2.93  -3.52  -4.90
##  2 S2     -3.60  -2.83  -2.56  -2.76  -3.32
##  3 S3     -3.00  -2.88  -2.81  -3.39  -4.91
##  4 S4     -3.90  -3.20  -2.53  -3.67  -4.34
##  5 S5     -2.46  -2.00  -3.34  -3.66  -4.71
##  6 S6     -2.86  -2.74  -2.51  -3.21  -3.80
##  7 S7     -2.47  -2.59  -2.69  -2.15  -2.43
##  8 S8     -2.13  -1.93  -1.82  -2.21  -2.95
##  9 S9     -3.36  -3.16  -3.06  -3.26  -3.10
## 10 S10    -2.89  -2.54  -2.26  -2.89  -3.25
## # ℹ 17 more rows
…
For evaluation, we load our saved results and calculate rejection rates (we use an alpha of 0.10 since we are doing one-sided testing):

res = readRDS( file="data/discipline_simulation.rds" )

sres <- res %>% group_by( n_c, n_t, tx, model ) %>%
    summarise( E_est = mean( estimate ),
               SE = sd( estimate ),
               E_SE_hat = mean( std.error ),
               pow = mean( p.value <= 0.10 ) ) # one-sided testing
sres

## # A tibble: 378 × 8
## # Groups:   n_c, n_t, tx [54]
##      n_c   n_t    tx model   E_est     SE E_SE_hat
##    <dbl> <dbl> <dbl> <chr>   <dbl>  <dbl>    <dbl>
##  1     4     4  0.5  FE    -0.693  0.313    0.277 
##  2     4     4  0.5  log   -0.694  0.476    0.430 
##  3     4     4  0.5  log_… -0.692  0.431    0.383 
##  4     4     4  0.5  ratio -0.374  0.219    0.203 
##  5     4     4  0.5  rati… -0.291  0.151    0.139 
##  6     4     4  0.5  raw   -0.719  0.535    0.515 
##  7     4     4  0.5  simp… -0.0195 0.0194   0.0157
##  8     4     4  0.75 FE    -0.292  0.310    0.274 
##  9     4     4  0.75 log   -0.295  0.488    0.435 
## 10     4     4  0.75 log_… -0.305  0.424    0.373 
## # ℹ 368 more rows
## # ℹ 1 more variable: pow <dbl>
…
assign_data <- function( dat,
                         xi_0 = -1, xi_1 = 1 ) {
  n = nrow(dat)
  dat = mutate( dat,
                p = arm::invlogit( xi_0 + xi_1 * X ),
                Z = rbinom( n, 1, prob=p ),
                Yobs = ifelse( Z == 1, Y1, Y0 ) )
  dat
}

We can then add our assignment variable to our given data as so:

assign_data( d2 )

## # A tibble: 50 × 6
##           X     Y0      Y1     p     Z    Yobs
##       <dbl>  <dbl>   <dbl> <dbl> <int>   <dbl>
##  1  0.670    0.667   2.58  0.418     1   2.58 
##  2  0.371    0.314   4.57  0.348     1   4.57 
##  3  1.94     1.29    3.03  0.719     0   1.29 
##  4 -0.244    0.119 -10.0   0.224     1 -10.0  
##  5  0.00850  1.44    2.88  0.271     0   1.44 
##  6  1.41     1.14    5.02  0.600     1   5.02 
##  7 -0.864    0.461   0.802 0.134     1   0.802
##  8 -0.00533 -0.914  -1.17  0.268     0  -0.914
##  9 -0.907   -0.202   0.555 0.129     1   0.555
## 10 -0.363   -0.141   1.16  0.204     1   1.16 
## # ℹ 40 more rows
…
