Chapter 11 Designing multifactor simulations | Designing Monte Carlo Simulations in R
…
To allow reproducibility, we specify a different seed for each scenario just to avoid anything confusing about shared randomness across scenarios (see Section 8.4 for further discussion).
We then run the simulation 1000 times each for scenario, then unnest to get our final data:

params$res <- pmap(params, .f = run_CRT_sim, reps = 1000 )
res <- unnest(params, cols=data)
saveRDS( res, file = "results/simulation_CRT.rds" )

Normally, we would speed up these calculations using parallel processing; we discuss how to do so in Chapter 18.
Even under parallel processing, this simulation took overnight to run.
Our final results look like this:

## # A tibble: 810,000 × 13
##    n_bar     J   ATE size_coef   ICC alpha  reps
##    <dbl> <dbl> <dbl>     <dbl> <dbl> <dbl> <dbl>
##  1    20     5   0.2         0     0     0  1000
##  2    20     5   0.2         0     0     0  1000
##  3    20     5   0.2         0     0     0  1000
##  4    20     5   0.2         0     0     0  1000
##  5    20     5   0.2         0     0     0  1000
##  6    20     5   0.2         0     0     0  1000
##  7    20     5   0.2         0     0     0  1000
##  8    20     5   0.2         0     0     0  1000
##  9    20     5   0.2         0     0     0  1000
## 10    20     5   0.2         0     0     0  1000
## # ℹ 809,990 more rows
## # ℹ 6 more variables: seed <dbl>, runID <chr>,
## #   method <chr>, ATE_hat <dbl>, SE_hat <dbl>,
## #   p_value <dbl>
…
