Chapter 7 Estimation procedures | Designing Monte Carlo Simulations in R
…
##  [1]        NA        NA       NaN       NaN
##  [5]        NA 1.1766144        NA 1.6221953
##  [9]        NA       NaN        NA 1.6086350
## [13]       NaN 1.5356493        NA 1.1105727
## [17]        NA       NaN 1.1576487 0.8228205

The transpose() function takes a list of lists, and reorganizes them to give you a list of all the first elements, a list of all the second elements, etc.
transpose() is very powerful for wrangling data, because then we can make a tibble with list columns as so:

tb <- tibble( result = unlist( resu$result ), 
              error = resu$error )
print( tb, n = 4 )

## # A tibble: 20 × 2
##   result error     
##    <dbl> <list>    
## 1     NA <smplErrr>
## 2     NA <smplErrr>
## 3    NaN <NULL>    
## 4    NaN <NULL>    
## # ℹ 16 more rows
…
