Chapter 10 Designing and executing multifactor simulations | Designing Monte Carlo Simulations in R
…
lengths(design_factors)

##      N    mu1 lambda    rho 
##      3      3      2      8

params <- expand_grid( !!!design_factors )
params

## # A tibble: 144 × 4
##        N   mu1 lambda   rho
##    <dbl> <dbl>  <dbl> <dbl>
##  1    10     4    0.5   0  
##  2    10     4    0.5   0.1
##  3    10     4    0.5   0.2
##  4    10     4    0.5   0.3
##  5    10     4    0.5   0.4
##  6    10     4    0.5   0.5
##  7    10     4    0.5   0.6
##  8    10     4    0.5   0.7
##  9    10     4    1     0  
## 10    10     4    1     0.1
## # ℹ 134 more rows
…
Now we can use pmap() to run the simulation for all 144 parameter settings:

sim_results <- params
sim_results$res <- pmap(params_mod, Pearson_sim, reps = 1000 )

The above code calls our run_alpha_sim() method for each row in the list of scenarios we want to explore.
Conveniently, we can store the results as a new variable in the same dataset.

sim_results

## # A tibble: 144 × 5
##        N   mu1   rho   mu2 res             
##    <dbl> <dbl> <dbl> <dbl> <list>          
##  1    10     4   0       2 <tibble [1 × 5]>
##  2    10     4   0.1     2 <tibble [1 × 5]>
##  3    10     4   0.2     2 <tibble [1 × 5]>
##  4    10     4   0.3     2 <tibble [1 × 5]>
##  5    10     4   0.4     2 <tibble [1 × 5]>
##  6    10     4   0.5     2 <tibble [1 × 5]>
##  7    10     4   0.6     2 <tibble [1 × 5]>
##  8    10     4   0.7     2 <tibble [1 × 5]>
##  9    10     4   0       4 <tibble [1 × 5]>
## 10    10     4   0.1     4 <tibble [1 × 5]>
## # ℹ 134 more rows
…
sim_results$res[[3]]

## # A tibble: 1 × 5
##   K_coverage coverage coverage_mcse width
##        <int>    <dbl>         <dbl> <dbl>
## 1       1000    0.947       0.00708  1.13
## # ℹ 1 more variable: width_mcse <dbl>

List columns are neat, but hard to work with.
To turn the list-column into normal data, we can use unnest() to expand the res variable, replicating the values of the main variables once for each row in the nested dataset:

sim_results <- unnest(sim_results, cols = res)
sim_results

## # A tibble: 144 × 9
##        N   mu1   rho   mu2 K_coverage coverage
##    <dbl> <dbl> <dbl> <dbl>      <int>    <dbl>
##  1    10     4   0       2       1000    0.949
##  2    10     4   0.1     2       1000    0.954
##  3    10     4   0.2     2       1000    0.947
##  4    10     4   0.3     2       1000    0.94 
##  5    10     4   0.4     2       1000    0.953
##  6    10     4   0.5     2       1000    0.953
##  7    10     4   0.6     2       1000    0.938
##  8    10     4   0.7     2       1000    0.945
##  9    10     4   0       4       1000    0.956
## 10    10     4   0.1     4       1000    0.94 
## # ℹ 134 more rows
## # ℹ 3 more variables: coverage_mcse <dbl>,
## #   width <dbl>, width_mcse <dbl>
…
The first is several kilobytes, the second is several megabytes.

10.3.3 Getting raw results ready for analysis

If we generate raw results, we then need to do the performance calculations across replications within each simulation context so that we can explore the trends across simulation factors.

One way to do this is to use group_by() and summarize() to carry out the performance calculations:

sim_results_full %>%
  group_by( N, mu1, mu2, rho ) %>%
  summarise( 
    calc_coverage(lower_bound = CI_lo, upper_bound = CI_hi, true_param = rho)
  )

## # A tibble: 144 × 9
## # Groups:   N, mu1, mu2 [18]
##        N   mu1   mu2   rho K_coverage coverage
##    <dbl> <dbl> <dbl> <dbl>      <int>    <dbl>
##  1    10     4     2   0         1000    0.945
##  2    10     4     2   0.1       1000    0.936
##  3    10     4     2   0.2       1000    0.956
##  4    10     4     2   0.3       1000    0.944
##  5    10     4     2   0.4       1000    0.946
##  6    10     4     2   0.5       1000    0.935
##  7    10     4     2   0.6       1000    0.95 
##  8    10     4     2   0.7       1000    0.945
##  9    10     4     4   0         1000    0.946
## 10    10     4     4   0.1       1000    0.944
## # ℹ 134 more rows
## # ℹ 3 more variables: coverage_mcse <dbl>,
## #   width <dbl>, width_mcse <dbl>

If we want to use our full performance measure function evaluate_CIs() to get additional metrics such as MCSEs, we would nest our data into a series of mini-datasets (one for each simulation), and then process each element.
As we saw above, nesting collapses a larger dataset into one where one of the variables consists of a list of datasets:

results <- 
  sim_results_full |>
  group_by( N, mu1, mu2, rho ) %>%
  nest( .key = "res" )
results

## # A tibble: 144 × 5
## # Groups:   N, mu1, mu2, rho [144]
##        N   mu1   rho   mu2 res                 
##    <dbl> <dbl> <dbl> <dbl> <list>              
##  1    10     4   0       2 <tibble [1,000 × 4]>
##  2    10     4   0.1     2 <tibble [1,000 × 4]>
##  3    10     4   0.2     2 <tibble [1,000 × 4]>
##  4    10     4   0.3     2 <tibble [1,000 × 4]>
##  5    10     4   0.4     2 <tibble [1,000 × 4]>
##  6    10     4   0.5     2 <tibble [1,000 × 4]>
##  7    10     4   0.6     2 <tibble [1,000 × 4]>
##  8    10     4   0.7     2 <tibble [1,000 × 4]>
##  9    10     4   0       4 <tibble [1,000 × 4]>
## 10    10     4   0.1     4 <tibble [1,000 × 4]>
## # ℹ 134 more rows

Note how each row of our nested data has a little tibble containing the results for that context, with 1000 rows each.
Once nested, we can then use map2() to apply a function to each element of res:

results_summary <- 
  results %>%
  mutate( performance = map2( res, rho, evaluate_CIs ) ) %>%
  dplyr::select( -res ) %>%
  unnest( cols="performance" ) 
results_summary

## # A tibble: 144 × 9
## # Groups:   N, mu1, mu2, rho [144]
##        N   mu1   rho   mu2 K_coverage coverage
##    <dbl> <dbl> <dbl> <dbl>      <int>    <dbl>
##  1    10     4   0       2       1000    0.945
##  2    10     4   0.1     2       1000    0.936
##  3    10     4   0.2     2       1000    0.956
##  4    10     4   0.3     2       1000    0.944
##  5    10     4   0.4     2       1000    0.946
##  6    10     4   0.5     2       1000    0.935
##  7    10     4   0.6     2       1000    0.95 
##  8    10     4   0.7     2       1000    0.945
##  9    10     4   0       4       1000    0.946
## 10    10     4   0.1     4       1000    0.944
## # ℹ 134 more rows
## # ℹ 3 more variables: coverage_mcse <dbl>,
## #   width <dbl>, width_mcse <dbl>
…
To allow reproducibility, we specify a different seed for each scenario just to avoid anything confusing about shared randomness across scenarios (see Section 8.4 for further discussion).
We then run the simulation 1000 times each for scenario, then unnest to get our final data:

params$res <- pmap(params, .f = run_CRT_sim, reps = 1000 )
res <- unnest(params, cols=data)
saveRDS( res, file = "results/simulation_CRT.rds" )

Normally, we would speed up these calculations using parallel processing; we discuss how to do so in Chapter 17.
Even under parallel processing, this simulation took overnight to run.
Our final results look like this:

## # A tibble: 810,000 × 13
##    n_bar     J   ATE size_coef   ICC alpha  reps
##    <dbl> <dbl> <dbl>     <dbl> <dbl> <dbl> <dbl>
##  1    20     5   0.2         0     0     0  1000
##  2    20     5   0.2         0     0     0  1000
##  3    20     5   0.2         0     0     0  1000
##  4    20     5   0.2         0     0     0  1000
##  5    20     5   0.2         0     0     0  1000
##  6    20     5   0.2         0     0     0  1000
##  7    20     5   0.2         0     0     0  1000
##  8    20     5   0.2         0     0     0  1000
##  9    20     5   0.2         0     0     0  1000
## 10    20     5   0.2         0     0     0  1000
## # ℹ 809,990 more rows
## # ℹ 6 more variables: seed <dbl>, runID <chr>,
## #   method <chr>, ATE_hat <dbl>, SE_hat <dbl>,
## #   p_value <dbl>
…
