Chapter 9 Performance metrics | Designing Monte Carlo Simulations in R
…
ttL <- tt %>%
  pivot_longer( cols = c(pred_LASSO, pred_BART),
                names_to = "method",
                names_prefix="pred_",
                values_to = "pred" ) %>%
  relocate( method )
ttL

## # A tibble: 2,000 × 4
##    method    ID   theta    pred
##    <chr>  <int>   <dbl>   <dbl>
##  1 LASSO      1   0.871   0.261
##  2 BART       1   0.871  -6.49 
##  3 LASSO      2  -4.68   -1.20 
##  4 BART       2  -4.68    2.13 
##  5 LASSO      3  -5.74   -1.66 
##  6 BART       3  -5.74  -13.2  
##  7 LASSO      4  -6.21   -0.607
##  8 BART       4  -6.21   -1.70 
##  9 LASSO      5 -12.7    -2.92 
## 10 BART       5 -12.7   -13.8  
## # ℹ 1,990 more rows
…
9.9.2 Calculating MCSEs With the simhelpers Package

The simhelper package is designed to calculate MCSEs (and the performance metrics themselves) for you.
It is easy to use: take this set of simulation runs on the Welch dataset:

library( simhelpers )
data( welch_res )
welch <- welch_res %>%
  filter( method == "t-test" ) %>%
  dplyr::select( -method, -seed, -iterations )

welch

## # A tibble: 8,000 × 8
##       n1    n2 mean_diff      est    var p_val
##    <dbl> <dbl>     <dbl>    <dbl>  <dbl> <dbl>
##  1    50    50         0  0.0258  0.0954 0.934
##  2    50    50         0  0.00516 0.0848 0.986
##  3    50    50         0 -0.0798  0.0818 0.781
##  4    50    50         0 -0.0589  0.102  0.854
##  5    50    50         0  0.0251  0.118  0.942
##  6    50    50         0 -0.115   0.106  0.725
##  7    50    50         0  0.157   0.115  0.645
##  8    50    50         0 -0.213   0.121  0.543
##  9    50    50         0  0.509   0.117  0.139
## 10    50    50         0 -0.354   0.0774 0.206
## # ℹ 7,990 more rows
## # ℹ 2 more variables: lower_bound <dbl>,
## #   upper_bound <dbl>
…
