Chapter 16 Simulations as evidence | Designing Monte Carlo Simulations in R
…
nd = dat %>%
  dplyr::select( starts_with("X") ) %>%
  slice_sample( n = 500, replace = TRUE )

If we don’t want exact duplicates of the vectors of \(X\) values in our data, we can use other methods such as the synthpop package, which generates data based on a series of conditional distributions.

So we can check our work later, we are instead going to cheat and use a dataset, new_data that is generated from the same DGP as our original fake data.
It looks like so:

## # A tibble: 3,000 × 5
##       X1    X2    X3      X4   trueY
##    <dbl> <dbl> <dbl>   <dbl>   <dbl>
##  1    -1     1 2.21  -1.36     7.15 
##  2     5     0 3.89   0.465  550    
##  3    -1     1 4.40  -2.28     0.196
##  4     1     1 0.296  0.942    2.55 
##  5     3     1 3.58   0.413  550    
##  6     4     1 0.748  1.21    82.8  
##  7     4     0 6.18   1.86   550    
##  8    -1     1 2.93   0.0764  16.6  
##  9    -1     0 0.595 -0.742    0.133
## 10     4     1 6.32   1.25   934.   
## # ℹ 2,990 more rows
…
