Chapter 12 Analyzing the multifactor experiment | Designing Monte Carlo Simulations in R
…
We next use the above to run our multi-factor simulation experiment.
We are going to vary four factors: control group size, treatment group size,
standard deviation of the units, and the treatment effect.

nC = c( 2, 4, 7, 10, 50, 500 )
nT = c( 2, 4, 7, 10, 50, 500 )
sdC = c( 1 )
tau = c( 0, 0.5, 1 )
sdTau = c( 0, 0.5 )

experiments = expand_grid( nC=nC, nT=nT, sdC=sdC, tau=tau, sdTau = sdTau )
experiments

## # A tibble: 216 × 5
##       nC    nT   sdC   tau sdTau
##    <dbl> <dbl> <dbl> <dbl> <dbl>
##  1     2     2     1   0     0  
##  2     2     2     1   0     0.5
##  3     2     2     1   0.5   0  
##  4     2     2     1   0.5   0.5
##  5     2     2     1   1     0  
##  6     2     2     1   1     0.5
##  7     2     4     1   0     0  
##  8     2     4     1   0     0.5
##  9     2     4     1   0.5   0  
## 10     2     4     1   0.5   0.5
## # ℹ 206 more rows
…
