Chapter 13 Building good vizualizations | Designing Monte Carlo Simulations in R
…
A major advantage of aggregation over the bundling approach is we can have a smaller number of replications per factor combination with aggregation.
If the number of replicates within each scenario is small, then the performance measures for each scenario is estimated with a lot of error; the aggregate, by contrast, will be an average across many more replicates and thus give a good sense of average performance.
The averaging, in effect, gives a lot more replications per aggregated performance measure.

For our cluster RCT, we might aggregate our bias across our sample sizes as follows:

ssres <- 
  sres %>% 
  group_by( method, ICC, alpha, size_coef ) %>%
  summarise( bias = mean( bias ),
             n = n() )
ssres

## # A tibble: 90 × 6
## # Groups:   method, ICC, alpha [45]
##    method   ICC alpha size_coef      bias     n
##    <chr>  <dbl> <dbl>     <dbl>     <dbl> <int>
##  1 Agg      0     0         0    0.00170      9
##  2 Agg      0     0         0.2  0.000307     9
##  3 Agg      0     0.5       0    0.000329     9
##  4 Agg      0     0.5       0.2  0.000240     9
##  5 Agg      0     0.8       0    0.000470     9
##  6 Agg      0     0.8       0.2 -0.000440     9
##  7 Agg      0.2   0         0   -0.00585      9
##  8 Agg      0.2   0         0.2 -0.00181      9
##  9 Agg      0.2   0.5       0   -0.00141      9
## 10 Agg      0.2   0.5       0.2 -0.00226      9
## # ℹ 80 more rows
…
