Chapter 14 Case study: A simulation to compare different estimators | Designing Monte Carlo Simulations in R
…
ns = c( 10, 50, 250, 1250 )
dfs = c( 3, 5, 15, 30 )
lvls = expand_grid( n=ns, df=dfs )

# So it stores our dataframe results in our lvls data properly.
lvls = as_tibble(lvls)

results <- lvls %>% mutate( results = pmap( lvls, run.simulation ) )

We have stored our results (a bunch of dataframes) in our main matrix of
simulation runs.

print( results, n=4 )

## # A tibble: 16 × 3
##       n    df results         
##   <dbl> <dbl> <list>          
## 1    10     3 <tibble [3 × 4]>
## 2    10     5 <tibble [3 × 4]>
## 3    10    15 <tibble [3 × 4]>
## 4    10    30 <tibble [3 × 4]>
## # … with 12 more rows

The unnest() function will stack up our dataframes, replicating the other columns in the main dataframe so it makes a nice rectangular dataset, all nice like. See (hard to read) R for DS Chapter 25.4.

results <- unnest( results, cols="results" )
results

## # A tibble: 48 × 6
##        n    df estimator  RMSE     bias    SE
##    <dbl> <dbl> <chr>     <dbl>    <dbl> <dbl>
##  1    10     3 mean      0.309 -0.0119  0.309
##  2    10     3 median    0.243 -0.0102  0.243
##  3    10     3 trim.mean 0.249 -0.0120  0.249
##  4    10     5 mean      0.320  0.00627 0.320
##  5    10     5 median    0.319  0.0121  0.319
##  6    10     5 trim.mean 0.298  0.00692 0.298
##  7    10    15 mean      0.321  0.00444 0.321
##  8    10    15 median    0.361  0.00925 0.361
##  9    10    15 trim.mean 0.323  0.00801 0.323
## 10    10    30 mean      0.309 -0.00229 0.309
## # … with 38 more rows
…
