Chapter 16 Case study: The Power and Validity of Neyman’s ATE Estimate | Designing Monte Carlo Simulations in R
…
We first set up the levels we want to have for each of our factors
(these are our simulation parameters).

nC = c( 2, 4, 7, 10, 50, 500 )
nT = c( 2, 4, 7, 10, 50, 500 )
sds = c( 1, 2 )
tau = c( 0, 0.5, 1 )

We then, using expand_grid() generate a dataframe of all
combinations of our factors.

experiments = expand_grid( nC=nC, nT=nT, sd=sds, tau=tau )
experiments

## # A tibble: 216 × 4
##       nC    nT    sd   tau
##    <dbl> <dbl> <dbl> <dbl>
##  1     2     2     1   0  
##  2     2     2     1   0.5
##  3     2     2     1   1  
##  4     2     2     2   0  
##  5     2     2     2   0.5
##  6     2     2     2   1  
##  7     2     4     1   0  
##  8     2     4     1   0.5
##  9     2     4     1   1  
## 10     2     4     2   0  
## # … with 206 more rows
…
