Chapter 4 Case Study: Heteroskedastic ANOVA | Designing Monte Carlo Simulations in R
…
In the fifth row of Table 1, Brown and Forsythe examine performance for the following parameter values for sample size and population variance:

sample_size <- c(4, 8, 10, 12)
sigma_sq <- c(3, 2, 2, 1)^2

With these parameter values, we can use our replicate code to simulate 10,000 \(p\)-values:

p_vals <- replicate(n = 10000, 
  sim_data <- one_run(mu = mu, sigma_sq = sigma_sq, sample_size = sample_size), 
  simplify = FALSE)

p_vals <- bind_rows(p_vals)
p_vals

## # A tibble: 10,000 × 2
##     ANOVA Welch
##     <dbl> <dbl>
##  1 0.912  0.940
##  2 0.0829 0.145
##  3 0.213  0.412
##  4 0.677  0.617
##  5 0.916  0.934
##  6 0.938  0.907
##  7 0.876  0.911
##  8 0.944  0.893
##  9 0.0795 0.196
## 10 0.808  0.868
## # … with 9,990 more rows
…
