Chapter 14 Case study: Comparing different estimators | Designing Monte Carlo Simulations in R
…
ns = c( 10, 50, 250, 1250 )
dfs = c( 3, 5, 15, 30 )
lvls = expand_grid( n=ns, df=dfs )

# So it stores our dataframe results in our lvls data properly.
lvls = as_tibble(lvls)

results <- lvls %>% mutate( results = pmap( lvls, run.simulation ) )

We have stored our results (a bunch of dataframes) in our main matrix of
simulation runs.

print( results, n=4 )

## # A tibble: 16 × 3
##       n    df results         
##   <dbl> <dbl> <list>          
## 1    10     3 <tibble [3 × 4]>
## 2    10     5 <tibble [3 × 4]>
## 3    10    15 <tibble [3 × 4]>
## 4    10    30 <tibble [3 × 4]>
## # ℹ 12 more rows

The unnest() function will stack up our dataframes, replicating the other columns in the main dataframe so it makes a nice rectangular dataset, all nice like. See (hard to read) R for DS Chapter 25.4.

results <- unnest( results, cols="results" )
results

## # A tibble: 48 × 6
##        n    df estimator  RMSE      bias    SE
##    <dbl> <dbl> <chr>     <dbl>     <dbl> <dbl>
##  1    10     3 mean      0.308 -0.00795  0.308
##  2    10     3 median    0.244 -0.00403  0.244
##  3    10     3 trim.mean 0.250 -0.00347  0.250
##  4    10     5 mean      0.321 -0.00142  0.322
##  5    10     5 median    0.315 -0.00763  0.315
##  6    10     5 trim.mean 0.294 -0.000161 0.294
##  7    10    15 mean      0.316 -0.00903  0.316
##  8    10    15 median    0.357  0.00890  0.357
##  9    10    15 trim.mean 0.316 -0.00138  0.316
## 10    10    30 mean      0.315 -0.00450  0.315
## # ℹ 38 more rows
…
