Chapter 4 Case Study: Heteroskedastic ANOVA | Designing Monte Carlo Simulations in R
…
In the fifth row of Table 1, Brown and Forsythe examine performance for the following parameter values for sample size and population variance:

sample_size <- c(4, 8, 10, 12)
sigma_sq <- c(3, 2, 2, 1)^2

With these parameter values, we can use our replicate code to simulate 10,000 \(p\)-values:

p_vals <- rerun(10000, 
  sim_data <- one_run(mu = mu,
                      sigma_sq = sigma_sq,
                      sample_size = sample_size) )
p_vals <- bind_rows(p_vals)
p_vals

## # A tibble: 10,000 × 2
##     ANOVA Welch
##     <dbl> <dbl>
##  1 0.276  0.512
##  2 0.503  0.649
##  3 0.438  0.693
##  4 0.781  0.898
##  5 0.764  0.779
##  6 0.153  0.383
##  7 0.942  0.921
##  8 0.640  0.845
##  9 0.0978 0.174
## 10 0.724  0.820
## # ℹ 9,990 more rows
…
