Chapter 17 Error trapping and other headaches | Designing Monte Carlo Simulations in R
…
resu <- transpose( resu )
unlist( resu$result )

##  [1]       NaN        NA       NaN 0.4354079 1.0734109        NA 1.5196734
##  [8]        NA       NaN 0.6382972 1.0836506        NA        NA 1.6244187
## [15] 1.1915743       NaN 2.1165066 2.0638450 1.6465782        NA

The transpose() method takes a list of lists, and reorganizes them to give you a list of all the first elements, a list of all the second elements, etc.
This is very powerful for wrangling data, because then we can make a tibble with list columns as so:

tb <- tibble( result = unlist( resu$result ),
        error = resu$error )
print( tb, n = 4 )

## # A tibble: 20 × 2
##    result error     
##     <dbl> <list>    
## 1 NaN     <NULL>    
## 2  NA     <smplErrr>
## 3 NaN     <NULL>    
## 4   0.435 <NULL>    
## # ℹ 16 more rows
…
