Chapter 11 Designing the multifactor simulation experiment | Designing Monte Carlo Simulations in R
…
To implement in code, we first save the simulation parameters as a list of factors, each factor having a list of values to explore.
We then run a simulation for every possible combination of these values.
Here is code that generates all the scenarios we will run given the above design, storing these combinations in a data frame, params, that represents the full experimental design:

design_factors <- list(
  n = c(50, 100),
  p = c(4, 8),
  alpha = seq(0.1, 0.9, 0.1),
  df = c(5, 10, 20, 100)
)

params <- cross_df(design_factors)
params

## # A tibble: 144 × 4
##        n     p alpha    df
##    <dbl> <dbl> <dbl> <dbl>
##  1    50     4   0.1     5
##  2   100     4   0.1     5
##  3    50     8   0.1     5
##  4   100     8   0.1     5
##  5    50     4   0.2     5
##  6   100     4   0.2     5
##  7    50     8   0.2     5
##  8   100     8   0.2     5
##  9    50     4   0.3     5
## 10   100     4   0.3     5
## # ℹ 134 more rows
…
When we pass our data frame a_df to pmap(), pmap() takes it as a list of lists, and therefore does exactly what it did before.

All of this means pmap() can run a specified function on each row of a dataset.
Continuing the Cronbach Alpha simulation from above, we would have the following:

params$iterations <- 500
sim_results <-  params %>%
  mutate(res = pmap(., run_alpha_sim ) )

The above code calls our run_alpha_sim() method for each row of our list of scenarios we want to explore.
Even better, we are storing the results as a new variable in the same dataset.

sim_results

## # A tibble: 144 × 6
##        n     p alpha    df iterations res  
##    <dbl> <dbl> <dbl> <dbl>      <dbl> <lgl>
##  1    50     4   0.1     5        500 NA   
##  2   100     4   0.1     5        500 NA   
##  3    50     8   0.1     5        500 NA   
##  4   100     8   0.1     5        500 NA   
##  5    50     4   0.2     5        500 NA   
##  6   100     4   0.2     5        500 NA   
##  7    50     8   0.2     5        500 NA   
##  8   100     8   0.2     5        500 NA   
##  9    50     4   0.3     5        500 NA   
## 10   100     4   0.3     5        500 NA   
## # ℹ 134 more rows
…
sim_results$res[[3]]

## [1] NA

List columns are neat, but hard to work with.
To turn into normal data we can use unnest() to expand the res variable, replicating the values of the main variables once for each row in the nested dataset:

library(tidyr)
sim_results <- unnest(sim_results, cols = res) %>%
  dplyr::select( -iterations )
sim_results

## # A tibble: 144 × 5
##        n     p alpha    df res  
##    <dbl> <dbl> <dbl> <dbl> <lgl>
##  1    50     4   0.1     5 NA   
##  2   100     4   0.1     5 NA   
##  3    50     8   0.1     5 NA   
##  4   100     8   0.1     5 NA   
##  5    50     4   0.2     5 NA   
##  6   100     4   0.2     5 NA   
##  7    50     8   0.2     5 NA   
##  8   100     8   0.2     5 NA   
##  9    50     4   0.3     5 NA   
## 10   100     4   0.3     5 NA   
## # ℹ 134 more rows
…
If we generated raw results then we need to collapse them by experimental run
before calculating performance measures so we can explore the trends across the
experiments.

One way to do this is to use group_by() and summarize() to summrize our raw results.

sim_results_full %>%
    group_by( n, p, alpha, df ) %>%
  summarise( 
    bias = mean(A - alpha),
    RMSE = sqrt(mean((A - alpha)^2))
  )

## # A tibble: 144 × 6
## # Groups:   n, p, alpha [36]
##        n     p alpha    df    bias  RMSE
##    <dbl> <dbl> <dbl> <dbl>   <dbl> <dbl>
##  1    50     4   0.1     5 -0.103  0.388
##  2    50     4   0.1    10 -0.0527 0.263
##  3    50     4   0.1    20 -0.0190 0.221
##  4    50     4   0.1   100 -0.0313 0.219
##  5    50     4   0.2     5 -0.0966 0.399
##  6    50     4   0.2    10 -0.0406 0.225
##  7    50     4   0.2    20 -0.0301 0.223
##  8    50     4   0.2   100 -0.0348 0.206
##  9    50     4   0.3     5 -0.0683 0.281
## 10    50     4   0.3    10 -0.0331 0.199
## # ℹ 134 more rows

If we want to use our full performance measure function alpha_performance() to get additional metrics such as MCSEs, we would nest our data into a series of mini-datasets (one for each simulation), and then process each element.
As we saw above, nesting collapses a larger dataframe into a dataframe of dataframes:

results <- sim_results_full |>
  dplyr::select( -iterations, -seed ) |>
  group_by( n, p, alpha, df ) |>
  nest( .key = "alpha_sims" )
results

## # A tibble: 144 × 5
## # Groups:   n, p, alpha, df [144]
##        n     p alpha    df alpha_sims        
##    <dbl> <dbl> <dbl> <dbl> <list>            
##  1    50     4   0.1     5 <tibble [500 × 4]>
##  2   100     4   0.1     5 <tibble [500 × 4]>
##  3    50     8   0.1     5 <tibble [500 × 4]>
##  4   100     8   0.1     5 <tibble [500 × 4]>
##  5    50     4   0.2     5 <tibble [500 × 4]>
##  6   100     4   0.2     5 <tibble [500 × 4]>
##  7    50     8   0.2     5 <tibble [500 × 4]>
##  8   100     8   0.2     5 <tibble [500 × 4]>
##  9    50     4   0.3     5 <tibble [500 × 4]>
## 10   100     4   0.3     5 <tibble [500 × 4]>
## # ℹ 134 more rows

Note how each row of our nested data has a little dataframe of the individual simulation results, with 500 rows each.
Once nested, we can then use map() to apply a function to each element of the nested dataframe.

results <- results %>%
  mutate( performance = map2( alpha_sims, alpha, 
                              alpha_performance ) )
results <- results %>%
  dplyr::select( -alpha_sims ) %>%
  unnest( cols="performance" ) 
results

## # A tibble: 576 × 7
## # Groups:   n, p, alpha, df [144]
##        n     p alpha    df criterion           est
##    <dbl> <dbl> <dbl> <dbl> <chr>             <dbl>
##  1    50     4   0.1     5 alpha bias      -0.103 
##  2    50     4   0.1     5 alpha RMSE       0.388 
##  3    50     4   0.1     5 V relative bias  0.436 
##  4    50     4   0.1     5 coverage         0.826 
##  5   100     4   0.1     5 alpha bias      -0.0347
##  6   100     4   0.1     5 alpha RMSE       0.224 
##  7   100     4   0.1     5 V relative bias  0.500 
##  8   100     4   0.1     5 coverage         0.85  
##  9    50     8   0.1     5 alpha bias      -0.0728
## 10    50     8   0.1     5 alpha RMSE       0.333 
## # ℹ 566 more rows
## # ℹ 1 more variable: MCSE <dbl>
…
We then run the simulation 1000 times each for all our scenarios, and unnest to get our final data:

params$res = pmap(params, .f = run_CRT_sim, reps = 1000 )
res = params %>% 
  unnest( cols=c(data) )
saveRDS( res, file = "results/simulation_CRT.rds" )

Normally we would do this in parallel for speed; we discuss how to do that in Section 19.
Even under parallel processing, this simulation took overnight to run.
Our final results look like this:

res

## # A tibble: 810,000 × 13
##    n_bar     J   ATE size_coef   ICC alpha  reps
##    <dbl> <dbl> <dbl>     <dbl> <dbl> <dbl> <dbl>
##  1    20     5   0.2         0     0     0  1000
##  2    20     5   0.2         0     0     0  1000
##  3    20     5   0.2         0     0     0  1000
##  4    20     5   0.2         0     0     0  1000
##  5    20     5   0.2         0     0     0  1000
##  6    20     5   0.2         0     0     0  1000
##  7    20     5   0.2         0     0     0  1000
##  8    20     5   0.2         0     0     0  1000
##  9    20     5   0.2         0     0     0  1000
## 10    20     5   0.2         0     0     0  1000
## # ℹ 809,990 more rows
## # ℹ 6 more variables: seed <dbl>, runID <chr>,
## #   method <chr>, ATE_hat <dbl>, SE_hat <dbl>,
## #   p_value <dbl>
…
