Chapter 9 Designing the multifactor simulation experiment | Designing Monte Carlo Simulations in R
…
design_factors <- list(
  n = c(50, 100),
  p = c(4, 8),
  alpha = seq(0.1, 0.9, 0.1),
  df = c(5, 10, 20, 100)
)

params <- cross_df(design_factors)
params

## # A tibble: 144 × 4
##        n     p alpha    df
##    <dbl> <dbl> <dbl> <dbl>
##  1    50     4   0.1     5
##  2   100     4   0.1     5
##  3    50     8   0.1     5
##  4   100     8   0.1     5
##  5    50     4   0.2     5
##  6   100     4   0.2     5
##  7    50     8   0.2     5
##  8   100     8   0.2     5
##  9    50     4   0.3     5
## 10   100     4   0.3     5
## # … with 134 more rows
…
## [1] 18 32 58

We can pass a_df to pmap, and pmap takes it as a list of lists, and therefore does exactly what it did before.

All of this means pmap() can run a specified function on each row of a dataset.
Continuing the Cronbach Alpha simulation from above, we would have the following:

We add a column to params to record the desired 500 replications per condition.
The above code calls our run_alpha_sim() method for each row of our list of scenarios we want to explore.
Even better, we are storing the results as a new variable in the same dataset.

sim_results

## # A tibble: 144 × 6
##        n     p alpha    df iterations res         
##    <dbl> <dbl> <dbl> <dbl>      <dbl> <list>      
##  1    50     4   0.1     5        500 <df [4 × 3]>
##  2   100     4   0.1     5        500 <df [4 × 3]>
##  3    50     8   0.1     5        500 <df [4 × 3]>
##  4   100     8   0.1     5        500 <df [4 × 3]>
##  5    50     4   0.2     5        500 <df [4 × 3]>
##  6   100     4   0.2     5        500 <df [4 × 3]>
##  7    50     8   0.2     5        500 <df [4 × 3]>
##  8   100     8   0.2     5        500 <df [4 × 3]>
##  9    50     4   0.3     5        500 <df [4 × 3]>
## 10   100     4   0.3     5        500 <df [4 × 3]>
## # … with 134 more rows
…
##         criterion         est        MCSE
## 1      alpha bias -0.07810538 0.015587246
## 2      alpha RMSE  0.35684535 0.002040271
## 3 V relative bias  0.40563277 0.004957216
## 4        coverage  0.83000000 0.009746794

We finally use unnest() to expand the res variable, replicating the values of the main variables once for each row in the nested dataset:

library(tidyr)
sim_results <- unnest(sim_results, cols = res) %>%
  dplyr::select( -iterations )
sim_results

## # A tibble: 576 × 7
##        n     p alpha    df criterion           est     MCSE
##    <dbl> <dbl> <dbl> <dbl> <chr>             <dbl>    <dbl>
##  1    50     4   0.1     5 alpha bias      -0.0671 0.0135  
##  2    50     4   0.1     5 alpha RMSE       0.309  0.000536
##  3    50     4   0.1     5 V relative bias  0.601  0.00172 
##  4    50     4   0.1     5 coverage         0.854  0.00975 
##  5   100     4   0.1     5 alpha bias      -0.0469 0.0105  
##  6   100     4   0.1     5 alpha RMSE       0.239  0.000480
##  7   100     4   0.1     5 V relative bias  0.462  0.00165 
##  8   100     4   0.1     5 coverage         0.804  0.00975 
##  9    50     8   0.1     5 alpha bias      -0.0781 0.0156  
## 10    50     8   0.1     5 alpha RMSE       0.357  0.00204 
## # … with 566 more rows
…
## [1] 2114.216

9.4.1 Getting raw results ready for analysis

If we generated raw results then we need to collapse them by experimental run
before calculating performance measures so we can explore the trends across the
experiments.
We do this by grouping our data and calling alpha_performance() for each group:

results <- sim_results_full %>%
  nest_by( n, p, alpha, df, .key = "alpha_sims" )
results

## # A tibble: 144 × 5
## # Rowwise:  n, p, alpha, df
##        n     p alpha    df         alpha_sims
##    <dbl> <dbl> <dbl> <dbl> <list<tibble[,4]>>
##  1    50     4   0.1     5          [500 × 4]
##  2    50     4   0.1    10          [500 × 4]
##  3    50     4   0.1    20          [500 × 4]
##  4    50     4   0.1   100          [500 × 4]
##  5    50     4   0.2     5          [500 × 4]
##  6    50     4   0.2    10          [500 × 4]
##  7    50     4   0.2    20          [500 × 4]
##  8    50     4   0.2   100          [500 × 4]
##  9    50     4   0.3     5          [500 × 4]
## 10    50     4   0.3    10          [500 × 4]
## # … with 134 more rows

results$performance = map2( results$alpha_sims, 
                               results$alpha, alpha_performance )
results <- results %>%
  dplyr::select( -alpha_sims ) %>%
  unnest( cols="performance" ) 
results

## # A tibble: 576 × 7
## # Groups:   n, p, alpha, df [144]
##        n     p alpha    df criterion           est     MCSE
##    <dbl> <dbl> <dbl> <dbl> <chr>             <dbl>    <dbl>
##  1    50     4   0.1     5 alpha bias      -0.0798 0.0143  
##  2    50     4   0.1     5 alpha RMSE       0.328  0.000661
##  3    50     4   0.1     5 V relative bias  0.557  0.00186 
##  4    50     4   0.1     5 coverage         0.82   0.00975 
##  5    50     4   0.1    10 alpha bias      -0.0384 0.0124  
##  6    50     4   0.1    10 alpha RMSE       0.280  0.000700
##  7    50     4   0.1    10 V relative bias  0.661  0.00281 
##  8    50     4   0.1    10 coverage         0.892  0.00975 
##  9    50     4   0.1    20 alpha bias      -0.0390 0.0101  
## 10    50     4   0.1    20 alpha RMSE       0.229  0.000348
## # … with 566 more rows
…
  res %>% 
  group_by( n_bar, J, ATE, size_coef, ICC, alpha, method ) %>%
  summarise( 
    bias = mean(ATE_hat - ATE),
    SE = sd( ATE_hat ),
    RMSE = sqrt( mean( (ATE_hat - ATE )^2 ) ),
    ESE_hat = sqrt( mean( SE_hat^2 ) ),
    SD_SE_hat = sqrt( sd( SE_hat^2 ) ),
    power = mean( p_value <= 0.05 ),
    R = n(),
    .groups = "drop"
  )
sres

## # A tibble: 810 × 14
##    n_bar     J   ATE size_coef   ICC alpha method     bias    SE  RMSE ESE_hat
##    <dbl> <dbl> <dbl>     <dbl> <dbl> <dbl> <chr>     <dbl> <dbl> <dbl>   <dbl>
##  1    20     5   0.2         0   0     0   Agg     0.00806 0.200 0.200   0.197
##  2    20     5   0.2         0   0     0   LR      0.00806 0.200 0.200   0.197
##  3    20     5   0.2         0   0     0   MLM     0.00806 0.200 0.200   0.234
##  4    20     5   0.2         0   0     0.5 Agg     0.0265  0.211 0.213   0.217
##  5    20     5   0.2         0   0     0.5 LR      0.0214  0.209 0.210   0.209
##  6    20     5   0.2         0   0     0.5 MLM     0.0234  0.208 0.209   0.244
##  7    20     5   0.2         0   0     0.8 Agg    -0.0186  0.239 0.239   0.224
##  8    20     5   0.2         0   0     0.8 LR     -0.0114  0.226 0.226   0.200
##  9    20     5   0.2         0   0     0.8 MLM    -0.0153  0.227 0.227   0.246
## 10    20     5   0.2         0   0.2   0   Agg    -0.00585 0.446 0.445   0.455
## # … with 800 more rows, and 3 more variables: SD_SE_hat <dbl>, power <dbl>,
## #   R <int>
…
