Chapter 7 Performance criteria | Designing Monte Carlo Simulations in R
…
7.7.2 The simhelpers package and MCSEs

The simhelper package is designed to calculate MCSEs (and the performance metrics themselves) for you.
It is easy to use: here is an example on the Welch dataset that the package provides:

library( simhelpers )
welch <- welch_res %>%
  filter( method == "t-test" ) %>%
  dplyr::select( -method, -seed, -iterations )
welch

## # A tibble: 8,000 × 8
##       n1    n2 mean_diff      est    var p_val lower_bound upper_bound
##    <dbl> <dbl>     <dbl>    <dbl>  <dbl> <dbl>       <dbl>       <dbl>
##  1    50    50         0  0.0258  0.0954 0.934      -0.587       0.639
##  2    50    50         0  0.00516 0.0848 0.986      -0.573       0.583
##  3    50    50         0 -0.0798  0.0818 0.781      -0.647       0.488
##  4    50    50         0 -0.0589  0.102  0.854      -0.692       0.574
##  5    50    50         0  0.0251  0.118  0.942      -0.658       0.708
##  6    50    50         0 -0.115   0.106  0.725      -0.761       0.531
##  7    50    50         0  0.157   0.115  0.645      -0.517       0.831
##  8    50    50         0 -0.213   0.121  0.543      -0.903       0.478
##  9    50    50         0  0.509   0.117  0.139      -0.169       1.19 
## 10    50    50         0 -0.354   0.0774 0.206      -0.906       0.198
## # … with 7,990 more rows
…
