Chapter 12 Presentation of simulation results | Designing Monte Carlo Simulations in R
…
Now we immediately see that only if both nC and nT are above 50 do we get our nominal rates. Even if nC is 500, we are elevated if nT is only 10. When nT is 2, then increased size of nC actually increases the rejection rate, meaning larger samples are worse; this is not obvious from looking at the raw table results.

12.1.1 Example: estimators of treatment variation

Tables can be used a bit more effectively to show average performance across a range of simulation scenarios.
In short: use tables to summarize findings, rather than using them to show raw results.

For example, in ongoing work, Miratrix has been studying the performance of a suite of estimators designed to estimate individual treatment effects.
To test which estimators perform better or worse than the others, we designed a series of scenarios where we varied the data-generating model by a variety of factors.
We then, for each scenario, calculated the performance, and then the relative performance of each estimator to the median of all estimators considered.

We can then ask, do some methods perform better than their peers on average across all scenarios considered?
The following table gives an answer to this question: for each method we calculate average performance, and then we order the methods from highest average RMSE to lowest:

## # A tibble: 85 × 10
##    model measure  level level_sd level_10 level_90
##    <fct> <chr>    <dbl>    <dbl>    <dbl>    <dbl>
##  1 ATE   R2      0        0        0        0     
##  2 ATE   bias    0.149    0.0497   0.0989   0.200 
##  3 ATE   rmse    0.154    0.0512   0.101    0.207 
##  4 ATE   se      0.0339   0.0161   0.0145   0.0576
##  5 ATE   spearm… 0        0        0        0     
##  6 BART… R2      0.399    0.247    0.0522   0.741 
##  7 BART… bias    0.101    0.0399   0.0522   0.159 
##  8 BART… rmse    0.118    0.0434   0.0676   0.183 
##  9 BART… se      0.0595   0.0260   0.0317   0.0973
## 10 BART… spearm… 0.541    0.216    0.222    0.811 
## # ℹ 75 more rows
## # ℹ 4 more variables: perf <dbl>, sdperf <dbl>,
## #   perf_10 <dbl>, perf_90 <dbl>
…
