Chapter 18 Simulation under the Potential Outcomes Framework | Designing Monte Carlo Simulations in R
…
assign_data <- function( dat,
                         xi_0 = -1, xi_1 = 1 ) {
  n = nrow(dat)
  dat = mutate( dat,
                p = arm::invlogit( xi_0 + xi_1 * X ),
                Z = rbinom( n, 1, prob=p ),
                Yobs = ifelse( Z == 1, Y1, Y0 ) )
  dat
}

We can then add our assignment variable to our given data as so:

assign_data( d2 )

## # A tibble: 50 × 6
##           X     Y0      Y1     p     Z    Yobs
##       <dbl>  <dbl>   <dbl> <dbl> <int>   <dbl>
##  1  0.670    0.667   2.58  0.418     1   2.58 
##  2  0.371    0.314   4.57  0.348     1   4.57 
##  3  1.94     1.29    3.03  0.719     0   1.29 
##  4 -0.244    0.119 -10.0   0.224     1 -10.0  
##  5  0.00850  1.44    2.88  0.271     0   1.44 
##  6  1.41     1.14    5.02  0.600     1   5.02 
##  7 -0.864    0.461   0.802 0.134     1   0.802
##  8 -0.00533 -0.914  -1.17  0.268     0  -0.914
##  9 -0.907   -0.202   0.555 0.129     1   0.555
## 10 -0.363   -0.141   1.16  0.204     1   1.16 
## # … with 40 more rows
…
