Chapter 22 Using simulation as a power calculator | Designing Monte Carlo Simulations in R
…
datW = read_csv( "data/discipline_data.csv" )

## Rows: 27 Columns: 6
## ── Column specification ──────────────────────────
## Delimiter: ","
## chr (1): Code
## dbl (5): 2015, 2016, 2017, 2018, 2019
## 
## ℹ Use `spec()` to retrieve the full column specification for this data.
## ℹ Specify the column types or set `show_col_types = FALSE` to quiet this message.

datW

## # A tibble: 27 × 6
##    Code  `2015` `2016` `2017` `2018` `2019`
##    <chr>  <dbl>  <dbl>  <dbl>  <dbl>  <dbl>
##  1 S1     -2.87  -2.81  -2.93  -3.52  -4.90
##  2 S2     -3.60  -2.83  -2.56  -2.76  -3.32
##  3 S3     -3.00  -2.88  -2.81  -3.39  -4.91
##  4 S4     -3.90  -3.20  -2.53  -3.67  -4.34
##  5 S5     -2.46  -2.00  -3.34  -3.66  -4.71
##  6 S6     -2.86  -2.74  -2.51  -3.21  -3.80
##  7 S7     -2.47  -2.59  -2.69  -2.15  -2.43
##  8 S8     -2.13  -1.93  -1.82  -2.21  -2.95
##  9 S9     -3.36  -3.16  -3.06  -3.26  -3.10
## 10 S10    -2.89  -2.54  -2.26  -2.89  -3.25
## # ℹ 17 more rows
…
For evaluation, we load our saved results and calculate rejection rates (we use an alpha of 0.10 since we are doing one-sided testing):

res = readRDS( file="data/discipline_simulation.rds" )

sres <- res %>% group_by( n_c, n_t, tx, model ) %>%
    summarise( E_est = mean( estimate ),
               SE = sd( estimate ),
               E_SE_hat = mean( std.error ),
               pow = mean( p.value <= 0.10 ) ) # one-sided testing
sres

## # A tibble: 378 × 8
## # Groups:   n_c, n_t, tx [54]
##      n_c   n_t    tx model   E_est     SE E_SE_hat
##    <dbl> <dbl> <dbl> <chr>   <dbl>  <dbl>    <dbl>
##  1     4     4  0.5  FE    -0.693  0.313    0.277 
##  2     4     4  0.5  log   -0.694  0.476    0.430 
##  3     4     4  0.5  log_… -0.692  0.431    0.383 
##  4     4     4  0.5  ratio -0.374  0.219    0.203 
##  5     4     4  0.5  rati… -0.291  0.151    0.139 
##  6     4     4  0.5  raw   -0.719  0.535    0.515 
##  7     4     4  0.5  simp… -0.0195 0.0194   0.0157
##  8     4     4  0.75 FE    -0.292  0.310    0.274 
##  9     4     4  0.75 log   -0.295  0.488    0.435 
## 10     4     4  0.75 log_… -0.305  0.424    0.373 
## # ℹ 368 more rows
## # ℹ 1 more variable: pow <dbl>
…
